{
    "href": "https://api.spotify.com/v1/albums/4aawyAB9vmqN3uQ7FjRGTy/tracks?offset=5&limit=10&market=ES&locale=en-US,en;q=0.9,fr-FR;q=0.8,fr;q=0.7",
    "items": [
      {
        "artists": [
          {
            "external_urls": {
              "spotify": "https://open.spotify.com/artist/0TnOYISbd1XYRBk9myaseg"
            },
            "href": "https://api.spotify.com/v1/artists/0TnOYISbd1XYRBk9myaseg",
            "id": "0TnOYISbd1XYRBk9myaseg",
            "name": "Pitbull",
            "type": "artist",
            "uri": "spotify:artist:0TnOYISbd1XYRBk9myaseg"
          },
          {
            "external_urls": {
              "spotify": "https://open.spotify.com/artist/23zg3TcAtWQy7J6upgbUnj"
            },
            "href": "https://api.spotify.com/v1/artists/23zg3TcAtWQy7J6upgbUnj",
            "id": "23zg3TcAtWQy7J6upgbUnj",
            "name": "Usher",
            "type": "artist",
            "uri": "spotify:artist:23zg3TcAtWQy7J6upgbUnj"
          },
          {
            "external_urls": {
              "spotify": "https://open.spotify.com/artist/4D75GcNG95ebPtNvoNVXhz"
            },
            "href": "https://api.spotify.com/v1/artists/4D75GcNG95ebPtNvoNVXhz",
            "id": "4D75GcNG95ebPtNvoNVXhz",
            "name": "AFROJACK",
            "type": "artist",
            "uri": "spotify:artist:4D75GcNG95ebPtNvoNVXhz"
          }
        ],
        "disc_number": 1,
        "duration_ms": 243160,
        "explicit": true,
        "external_urls": {
          "spotify": "https://open.spotify.com/track/6Q4PYJtrq8CBx7YCY5IyRN"
        },
        "href": "https://api.spotify.com/v1/tracks/6Q4PYJtrq8CBx7YCY5IyRN",
        "id": "6Q4PYJtrq8CBx7YCY5IyRN",
        "is_local": false,
        "is_playable": true,
        "name": "Party Ain't Over (feat. Usher & Afrojack)",
        "preview_url": "https://p.scdn.co/mp3-preview/c0eef14cc92ec73ae215e73c63474cb0d76ffa39?cid=774b29d4f13844c495f206cafdad9c86",
        "track_number": 6,
        "type": "track",
        "uri": "spotify:track:6Q4PYJtrq8CBx7YCY5IyRN"
      },
      {
        "artists": [
          {
            "external_urls": {
              "spotify": "https://open.spotify.com/artist/0TnOYISbd1XYRBk9myaseg"
            },
            "href": "https://api.spotify.com/v1/artists/0TnOYISbd1XYRBk9myaseg",
            "id": "0TnOYISbd1XYRBk9myaseg",
            "name": "Pitbull",
            "type": "artist",
            "uri": "spotify:artist:0TnOYISbd1XYRBk9myaseg"
          },
          {
            "external_urls": {
              "spotify": "https://open.spotify.com/artist/2DlGxzQSjYe5N6G9nkYghR"
            },
            "href": "https://api.spotify.com/v1/artists/2DlGxzQSjYe5N6G9nkYghR",
            "id": "2DlGxzQSjYe5N6G9nkYghR",
            "name": "Jennifer Lopez",
            "type": "artist",
            "uri": "spotify:artist:2DlGxzQSjYe5N6G9nkYghR"
          }
        ],
        "disc_number": 1,
        "duration_ms": 196920,
        "explicit": false,
        "external_urls": {
          "spotify": "https://open.spotify.com/track/0QTVwqcOsYd73AOkYkk0Hg"
        },
        "href": "https://api.spotify.com/v1/tracks/0QTVwqcOsYd73AOkYkk0Hg",
        "id": "0QTVwqcOsYd73AOkYkk0Hg",
        "is_local": false,
        "is_playable": true,
        "name": "Drinks for You (Ladies Anthem) (feat. J. Lo)",
        "preview_url": "https://p.scdn.co/mp3-preview/c8dbfd9733901ad89a36bcba5427dd85f37feb40?cid=774b29d4f13844c495f206cafdad9c86",
        "track_number": 7,
        "type": "track",
        "uri": "spotify:track:0QTVwqcOsYd73AOkYkk0Hg"
      },
      {
        "artists": [
          {
            "external_urls": {
              "spotify": "https://open.spotify.com/artist/0TnOYISbd1XYRBk9myaseg"
            },
            "href": "https://api.spotify.com/v1/artists/0TnOYISbd1XYRBk9myaseg",
            "id": "0TnOYISbd1XYRBk9myaseg",
            "name": "Pitbull",
            "type": "artist",
            "uri": "spotify:artist:0TnOYISbd1XYRBk9myaseg"
          },
          {
            "external_urls": {
              "spotify": "https://open.spotify.com/artist/2NhdGz9EDv2FeUw6udu2g1"
            },
            "href": "https://api.spotify.com/v1/artists/2NhdGz9EDv2FeUw6udu2g1",
            "id": "2NhdGz9EDv2FeUw6udu2g1",
            "name": "The Wanted",
            "type": "artist",
            "uri": "spotify:artist:2NhdGz9EDv2FeUw6udu2g1"
          },
          {
            "external_urls": {
              "spotify": "https://open.spotify.com/artist/4D75GcNG95ebPtNvoNVXhz"
            },
            "href": "https://api.spotify.com/v1/artists/4D75GcNG95ebPtNvoNVXhz",
            "id": "4D75GcNG95ebPtNvoNVXhz",
            "name": "AFROJACK",
            "type": "artist",
            "uri": "spotify:artist:4D75GcNG95ebPtNvoNVXhz"
          }
        ],
        "disc_number": 1,
        "duration_ms": 244920,
        "explicit": false,
        "external_urls": {
          "spotify": "https://open.spotify.com/track/10Sydb6AAFPdgCzCKOSZuI"
        },
        "href": "https://api.spotify.com/v1/tracks/10Sydb6AAFPdgCzCKOSZuI",
        "id": "10Sydb6AAFPdgCzCKOSZuI",
        "is_local": false,
        "is_playable": true,
        "name": "Have Some Fun (feat. The Wanted & Afrojack)",
        "preview_url": "https://p.scdn.co/mp3-preview/434334202a27a87178fdf76d38c9519bfb4c93fa?cid=774b29d4f13844c495f206cafdad9c86",
        "track_number": 8,
        "type": "track",
        "uri": "spotify:track:10Sydb6AAFPdgCzCKOSZuI"
      },
      {
        "artists": [
          {
            "external_urls": {
              "spotify": "https://open.spotify.com/artist/0TnOYISbd1XYRBk9myaseg"
            },
            "href": "https://api.spotify.com/v1/artists/0TnOYISbd1XYRBk9myaseg",
            "id": "0TnOYISbd1XYRBk9myaseg",
            "name": "Pitbull",
            "type": "artist",
            "uri": "spotify:artist:0TnOYISbd1XYRBk9myaseg"
          },
          {
            "external_urls": {
              "spotify": "https://open.spotify.com/artist/0e9P96siQmxphVXAwTy2pa"
            },
            "href": "https://api.spotify.com/v1/artists/0e9P96siQmxphVXAwTy2pa",
            "id": "0e9P96siQmxphVXAwTy2pa",
            "name": "Danny Mercer",
            "type": "artist",
            "uri": "spotify:artist:0e9P96siQmxphVXAwTy2pa"
          }
        ],
        "disc_number": 1,
        "duration_ms": 206800,
        "explicit": true,
        "external_urls": {
          "spotify": "https://open.spotify.com/track/4k61iDqmtX9nI7RfLmp9aq"
        },
        "href": "https://api.spotify.com/v1/tracks/4k61iDqmtX9nI7RfLmp9aq",
        "id": "4k61iDqmtX9nI7RfLmp9aq",
        "is_local": false,
        "is_playable": true,
        "name": "Outta Nowhere (feat. Danny Mercer)",
        "preview_url": "https://p.scdn.co/mp3-preview/3e2bebcc61e6fd8d2c51f556a150374d77b4823d?cid=774b29d4f13844c495f206cafdad9c86",
        "track_number": 9,
        "type": "track",
        "uri": "spotify:track:4k61iDqmtX9nI7RfLmp9aq"
      },
      {
        "artists": [
          {
            "external_urls": {
              "spotify": "https://open.spotify.com/artist/0TnOYISbd1XYRBk9myaseg"
            },
            "href": "https://api.spotify.com/v1/artists/0TnOYISbd1XYRBk9myaseg",
            "id": "0TnOYISbd1XYRBk9myaseg",
            "name": "Pitbull",
            "type": "artist",
            "uri": "spotify:artist:0TnOYISbd1XYRBk9myaseg"
          },
          {
            "external_urls": {
              "spotify": "https://open.spotify.com/artist/7qG3b048QCHVRO5Pv1T5lw"
            },
            "href": "https://api.spotify.com/v1/artists/7qG3b048QCHVRO5Pv1T5lw",
            "id": "7qG3b048QCHVRO5Pv1T5lw",
            "name": "Enrique Iglesias",
            "type": "artist",
            "uri": "spotify:artist:7qG3b048QCHVRO5Pv1T5lw"
          }
        ],
        "disc_number": 1,
        "duration_ms": 205800,
        "explicit": false,
        "external_urls": {
          "spotify": "https://open.spotify.com/track/7oGRkL31ElVMcevQDceT99"
        },
        "href": "https://api.spotify.com/v1/tracks/7oGRkL31ElVMcevQDceT99",
        "id": "7oGRkL31ElVMcevQDceT99",
        "is_local": false,
        "is_playable": true,
        "name": "Tchu Tchu Tcha (feat. Enrique Iglesias)",
        "preview_url": "https://p.scdn.co/mp3-preview/4fb82e67fa6458da3702bf6348890d0570a8376e?cid=774b29d4f13844c495f206cafdad9c86",
        "track_number": 10,
        "type": "track",
        "uri": "spotify:track:7oGRkL31ElVMcevQDceT99"
      },
      {
        "artists": [
          {
            "external_urls": {
              "spotify": "https://open.spotify.com/artist/0TnOYISbd1XYRBk9myaseg"
            },
            "href": "https://api.spotify.com/v1/artists/0TnOYISbd1XYRBk9myaseg",
            "id": "0TnOYISbd1XYRBk9myaseg",
            "name": "Pitbull",
            "type": "artist",
            "uri": "spotify:artist:0TnOYISbd1XYRBk9myaseg"
          },
          {
            "external_urls": {
              "spotify": "https://open.spotify.com/artist/4D75GcNG95ebPtNvoNVXhz"
            },
            "href": "https://api.spotify.com/v1/artists/4D75GcNG95ebPtNvoNVXhz",
            "id": "4D75GcNG95ebPtNvoNVXhz",
            "name": "AFROJACK",
            "type": "artist",
            "uri": "spotify:artist:4D75GcNG95ebPtNvoNVXhz"
          },
          {
            "external_urls": {
              "spotify": "https://open.spotify.com/artist/1EVWYRr2obCRDoSoD6KSuM"
            },
            "href": "https://api.spotify.com/v1/artists/1EVWYRr2obCRDoSoD6KSuM",
            "id": "1EVWYRr2obCRDoSoD6KSuM",
            "name": "Havana Brown",
            "type": "artist",
            "uri": "spotify:artist:1EVWYRr2obCRDoSoD6KSuM"
          }
        ],
        "disc_number": 1,
        "duration_ms": 219600,
        "explicit": true,
        "external_urls": {
          "spotify": "https://open.spotify.com/track/60xPqMqnHZl7Jfiu6E9q8X"
        },
        "href": "https://api.spotify.com/v1/tracks/60xPqMqnHZl7Jfiu6E9q8X",
        "id": "60xPqMqnHZl7Jfiu6E9q8X",
        "is_local": false,
        "is_playable": true,
        "name": "Last Night (feat. Afrojack & Havana Brown)",
        "preview_url": "https://p.scdn.co/mp3-preview/c7be10f151dcd40b37cb84c38461cccc84fddff3?cid=774b29d4f13844c495f206cafdad9c86",
        "track_number": 11,
        "type": "track",
        "uri": "spotify:track:60xPqMqnHZl7Jfiu6E9q8X"
      },
      {
        "artists": [
          {
            "external_urls": {
              "spotify": "https://open.spotify.com/artist/0TnOYISbd1XYRBk9myaseg"
            },
            "href": "https://api.spotify.com/v1/artists/0TnOYISbd1XYRBk9myaseg",
            "id": "0TnOYISbd1XYRBk9myaseg",
            "name": "Pitbull",
            "type": "artist",
            "uri": "spotify:artist:0TnOYISbd1XYRBk9myaseg"
          }
        ],
        "disc_number": 1,
        "duration_ms": 197520,
        "explicit": true,
        "external_urls": {
          "spotify": "https://open.spotify.com/track/1jAdXqOSICyXYLaW9ioSur"
        },
        "href": "https://api.spotify.com/v1/tracks/1jAdXqOSICyXYLaW9ioSur",
        "id": "1jAdXqOSICyXYLaW9ioSur",
        "is_local": false,
        "is_playable": true,
        "name": "I'm Off That",
        "preview_url": "https://p.scdn.co/mp3-preview/d9eacfc0cfe1d59403294286b68dba07e0e44639?cid=774b29d4f13844c495f206cafdad9c86",
        "track_number": 12,
        "type": "track",
        "uri": "spotify:track:1jAdXqOSICyXYLaW9ioSur"
      },
      {
        "artists": [
          {
            "external_urls": {
              "spotify": "https://open.spotify.com/artist/0TnOYISbd1XYRBk9myaseg"
            },
            "href": "https://api.spotify.com/v1/artists/0TnOYISbd1XYRBk9myaseg",
            "id": "0TnOYISbd1XYRBk9myaseg",
            "name": "Pitbull",
            "type": "artist",
            "uri": "spotify:artist:0TnOYISbd1XYRBk9myaseg"
          },
          {
            "external_urls": {
              "spotify": "https://open.spotify.com/artist/5F2Bwl7Is7KVwTbNbMclIS"
            },
            "href": "https://api.spotify.com/v1/artists/5F2Bwl7Is7KVwTbNbMclIS",
            "id": "5F2Bwl7Is7KVwTbNbMclIS",
            "name": "Papayo",
            "type": "artist",
            "uri": "spotify:artist:5F2Bwl7Is7KVwTbNbMclIS"
          }
        ],
        "disc_number": 1,
        "duration_ms": 196440,
        "explicit": false,
        "external_urls": {
          "spotify": "https://open.spotify.com/track/0fjRYHFz9ealui1lfnN8it"
        },
        "href": "https://api.spotify.com/v1/tracks/0fjRYHFz9ealui1lfnN8it",
        "id": "0fjRYHFz9ealui1lfnN8it",
        "is_local": false,
        "is_playable": true,
        "name": "Echa Pa'lla (Manos Pa'rriba) (feat. Papayo)",
        "preview_url": "https://p.scdn.co/mp3-preview/8ae1ca3eae6289fc8f40035a8100dd34a351a872?cid=774b29d4f13844c495f206cafdad9c86",
        "track_number": 13,
        "type": "track",
        "uri": "spotify:track:0fjRYHFz9ealui1lfnN8it"
      },
      {
        "artists": [
          {
            "external_urls": {
              "spotify": "https://open.spotify.com/artist/0TnOYISbd1XYRBk9myaseg"
            },
            "href": "https://api.spotify.com/v1/artists/0TnOYISbd1XYRBk9myaseg",
            "id": "0TnOYISbd1XYRBk9myaseg",
            "name": "Pitbull",
            "type": "artist",
            "uri": "spotify:artist:0TnOYISbd1XYRBk9myaseg"
          },
          {
            "external_urls": {
              "spotify": "https://open.spotify.com/artist/0z4gvV4rjIZ9wHck67ucSV"
            },
            "href": "https://api.spotify.com/v1/artists/0z4gvV4rjIZ9wHck67ucSV",
            "id": "0z4gvV4rjIZ9wHck67ucSV",
            "name": "Akon",
            "type": "artist",
            "uri": "spotify:artist:0z4gvV4rjIZ9wHck67ucSV"
          },
          {
            "external_urls": {
              "spotify": "https://open.spotify.com/artist/5IqWDVLGThjmkm22e3oBU3"
            },
            "href": "https://api.spotify.com/v1/artists/5IqWDVLGThjmkm22e3oBU3",
            "id": "5IqWDVLGThjmkm22e3oBU3",
            "name": "David Rush",
            "type": "artist",
            "uri": "spotify:artist:5IqWDVLGThjmkm22e3oBU3"
          }
        ],
        "disc_number": 1,
        "duration_ms": 257613,
        "explicit": true,
        "external_urls": {
          "spotify": "https://open.spotify.com/track/7of35ktwTbL906Z1i3mT4K"
        },
        "href": "https://api.spotify.com/v1/tracks/7of35ktwTbL906Z1i3mT4K",
        "id": "7of35ktwTbL906Z1i3mT4K",
        "is_local": false,
        "is_playable": true,
        "name": "Everybody Fucks (feat. Akon & David Rush)",
        "preview_url": "https://p.scdn.co/mp3-preview/a2c2c6ad931dab7a51df3ba25c6f18ddd10170d1?cid=774b29d4f13844c495f206cafdad9c86",
        "track_number": 14,
        "type": "track",
        "uri": "spotify:track:7of35ktwTbL906Z1i3mT4K"
      },
      {
        "artists": [
          {
            "external_urls": {
              "spotify": "https://open.spotify.com/artist/0TnOYISbd1XYRBk9myaseg"
            },
            "href": "https://api.spotify.com/v1/artists/0TnOYISbd1XYRBk9myaseg",
            "id": "0TnOYISbd1XYRBk9myaseg",
            "name": "Pitbull",
            "type": "artist",
            "uri": "spotify:artist:0TnOYISbd1XYRBk9myaseg"
          },
          {
            "external_urls": {
              "spotify": "https://open.spotify.com/artist/0EmeFodog0BfCgMzAIvKQp"
            },
            "href": "https://api.spotify.com/v1/artists/0EmeFodog0BfCgMzAIvKQp",
            "id": "0EmeFodog0BfCgMzAIvKQp",
            "name": "Shakira",
            "type": "artist",
            "uri": "spotify:artist:0EmeFodog0BfCgMzAIvKQp"
          }
        ],
        "disc_number": 1,
        "duration_ms": 245920,
        "explicit": false,
        "external_urls": {
          "spotify": "https://open.spotify.com/track/2JA6A6Y5f4m7PawM58U2Op"
        },
        "href": "https://api.spotify.com/v1/tracks/2JA6A6Y5f4m7PawM58U2Op",
        "id": "2JA6A6Y5f4m7PawM58U2Op",
        "is_local": false,
        "is_playable": true,
        "name": "Get It Started (feat. Shakira)",
        "preview_url": "https://p.scdn.co/mp3-preview/d6f33dcb1f5d117ae266248996db879a5aba9fec?cid=774b29d4f13844c495f206cafdad9c86",
        "track_number": 15,
        "type": "track",
        "uri": "spotify:track:2JA6A6Y5f4m7PawM58U2Op"
      }
    ],
    "limit": 10,
    "next": "https://api.spotify.com/v1/albums/4aawyAB9vmqN3uQ7FjRGTy/tracks?offset=15&limit=10&market=ES&locale=en-US,en;q=0.9,fr-FR;q=0.8,fr;q=0.7",
    "offset": 5,
    "previous": "https://api.spotify.com/v1/albums/4aawyAB9vmqN3uQ7FjRGTy/tracks?offset=0&limit=10&market=ES&locale=en-US,en;q=0.9,fr-FR;q=0.8,fr;q=0.7",
    "total": 18
}